EmplId7,ReportType7
0037645,UGUN
0038234,UGUN
0038337,UGUN
0038535,UGUN
0038742,GRUN
0038742,UGUN
0038802,GRUN
0038802,UGUN
0038901,GRUN
0038953,UGUN
0039011,GRUN
0039062,GRUN
0039293,UGUN
0039526,UGUN
0039538,GRUN
0039619,GRUN
0039875,UGUN
0039927,UGUN
0039936,GRUN
0039936,UGUN
0040061,GRUN
0040127,UGUN
0040156,UGUN
0040162,GRUN
0040366,UGUN
,
